<svg width="30" height="52" viewBox="0 0 30 52" fill="none" xmlns="http://www.w3.org/2000/svg">
<path d="M29.2002 43.8L10.9502 25.55L29.2002 7.3L25.5502 0L0.000198364 25.55L25.5502 51.1L29.2002 43.8Z" fill="white"/>
</svg>
